xsim.log
#-----------------------------------------------------------
# xsim v2022.1 (64-bit)
# SW Build 3526262 on Mon Apr 18 15:47:01 MDT 2022
# IP Build 3524634 on Mon Apr 18 20:55:01 MDT 2022
# Start of session at: Sun Mar 24 02:53:49 2024
# Process ID: 6473
# Current directory: /home/ubuntu/caravel-soc_fpga-lab/fsic-sim/fsic_fpga/rtl/user/testbench/tc
# Command line: xsim -mode tcl -source {xsim.dir/tb_fsic_xelab/xsim_script.tcl}
# Log file: /home/ubuntu/caravel-soc_fpga-lab/fsic-sim/fsic_fpga/rtl/user/testbench/tc/xsim.log
# Journal file: /home/ubuntu/caravel-soc_fpga-lab/fsic-sim/fsic_fpga/rtl/user/testbench/tc/xsim.jou
# Running On: ubuntu2004, OS: Linux, CPU Frequency: 2807.996 MHz, CPU Physical cores: 2, Host memory: 10425 MB
#-----------------------------------------------------------
source xsim.dir/tb_fsic_xelab/xsim_script.tcl
# xsim {tb_fsic_xelab} -autoloadwcfg -tclbatch {log_wave.tcl}
Time resolution is 1 ps
open_wave_config /home/ubuntu/caravel-soc_fpga-lab/fsic-sim/fsic_fpga/rtl/user/testbench/tc/tb_fsic_xelab.wcfg
WARNING: Simulation object /tb_fsic/dut/U_MPRJ_IO0/vccd1 was not found in the design.
WARNING: Simulation object /tb_fsic/dut/U_MPRJ_IO0/vccd2 was not found in the design.
WARNING: Simulation object /tb_fsic/dut/U_MPRJ_IO0/vssd1 was not found in the design.
WARNING: Simulation object /tb_fsic/dut/U_MPRJ_IO0/vssd2 was not found in the design.
WARNING: Simulation object /tb_fsic/vccd1 was not found in the design.
WARNING: Simulation object /tb_fsic/vccd2 was not found in the design.
WARNING: Simulation object /tb_fsic/vssd1 was not found in the design.
WARNING: Simulation object /tb_fsic/vssd2 was not found in the design.
WARNING: Simulation object /tb_fsic/dut/AXIS_SW0/pre_rd_ptr_reg was not found in the design.
WARNING: Simulation object /tb_fsic/dut/AXIS_SW0/as_up_tvalid_reg was not found in the design.
WARNING: Simulation object /tb_fsic/dut/AXIS_SW0/as_aa_tvalid_reg was not found in the design.
WARNING: Simulation object /tb_fsic/dut/AXIS_SW0/delaynext was not found in the design.
WARNING: Simulation object /tb_fsic/dut/AXIS_SW0/pre_m_axis was not found in the design.
WARNING: Simulation object /tb_fsic/dut/AXIS_SW0/as_up_tvalid_reg was not found in the design.
WARNING: Simulation object /tb_fsic/dut/AXIS_SW0/pre_rd_ptr_reg was not found in the design.
WARNING: Simulation object /tb_fsic/dut/AXIS_SW0/as_up_tvalid_reg was not found in the design.
WARNING: Simulation object /tb_fsic/dut/AXIS_SW0/as_aa_tvalid_reg was not found in the design.
WARNING: Simulation object /tb_fsic/dut/AXIS_SW0/delaynext was not found in the design.
WARNING: Simulation object /tb_fsic/dut/AXIS_SW0/pre_m_axis was not found in the design.
source log_wave.tcl
## log_wave -quiet -verbose -recursive *
## run all
fsic_system_initial
                  40=> soc POR Assert
                  40=> fpga POR Assert
                  40=> fpga reset Assert
                  80=> soc POR De-Assert
                  80=> fpga POR De-Assert
                 120=> fpga reset De-Assert
                 185=> fpga_as_to_is_init done
                 225=> fpga_cfg_write : fpga_axi_awaddr=0000, fpga_axi_awvalid=1, fpga_axi_awready=1, fpga_axi_wdata=00000001, axi_wstrb=1, fpga_axi_wvalid=1, fpga_axi_wready=1
                 425=> soc_is_cfg_write : wbs_adr=30003000, wbs_sel=0001, wbs_wdata=00000001
                 425=> soc rxen_ctl=1
                 425=> fpga rxen_ctl=1
                 865=> fpga_cfg_write : fpga_axi_awaddr=0000, fpga_axi_awvalid=1, fpga_axi_awready=1, fpga_axi_wdata=00000003, axi_wstrb=1, fpga_axi_wvalid=1, fpga_axi_wready=1
                1025=> soc_is_cfg_write : wbs_adr=30003000, wbs_sel=0001, wbs_wdata=00000003
                1025=> soc txen_ctl=1
                1025=> fpga txen_ctl=1
                1665=> soc_up_cfg_write : wbs_adr=30005000, wbs_sel=1111, wbs_wdata=00000001
                1945=> soc_up_cfg_write : wbs_adr=30000010, wbs_sel=1111, wbs_wdata=00000040
                2225=> soc_up_cfg_write : wbs_adr=30000020, wbs_sel=1111, wbs_wdata=00000000
                2505=> soc_up_cfg_write : wbs_adr=30000024, wbs_sel=1111, wbs_wdata=fffffff6
                2785=> soc_up_cfg_write : wbs_adr=30000028, wbs_sel=1111, wbs_wdata=fffffff7
                3065=> soc_up_cfg_write : wbs_adr=3000002c, wbs_sel=1111, wbs_wdata=00000017
                3345=> soc_up_cfg_write : wbs_adr=30000030, wbs_sel=1111, wbs_wdata=00000038
                3625=> soc_up_cfg_write : wbs_adr=30000034, wbs_sel=1111, wbs_wdata=0000003f
                3905=> soc_up_cfg_write : wbs_adr=30000038, wbs_sel=1111, wbs_wdata=00000038
                4185=> soc_up_cfg_write : wbs_adr=3000003c, wbs_sel=1111, wbs_wdata=00000017
                4465=> soc_up_cfg_write : wbs_adr=30000040, wbs_sel=1111, wbs_wdata=fffffff7
                4745=> soc_up_cfg_write : wbs_adr=30000044, wbs_sel=1111, wbs_wdata=fffffff6
                5025=> soc_up_cfg_write : wbs_adr=30000048, wbs_sel=1111, wbs_wdata=00000000
                5305=> soc_up_cfg_write : wbs_adr=30000000, wbs_sel=1111, wbs_wdata=00000001
                5625=> soc_aa_cfg_write : wbs_adr=30002000, wbs_sel=1111, wbs_wdata=a5a5a5a5
                6105=> get soc_to_fpga_mailbox_write_addr_captured be : soc_to_fpga_mailbox_write_addr_captured =xxxxxxxx, fpga_is_as_tdata=f0002000
                6105=> get soc_to_fpga_mailbox_write_addr_captured af : soc_to_fpga_mailbox_write_addr_captured =f0002000, fpga_is_as_tdata=f0002000
                6345=> get soc_to_fpga_mailbox_write_data_captured be : soc_to_fpga_mailbox_write_data_captured =xxxxxxxx, fpga_is_as_tdata=a5a5a5a5
                6345=> get soc_to_fpga_mailbox_write_data_captured af : soc_to_fpga_mailbox_write_data_captured =a5a5a5a5, fpga_is_as_tdata=a5a5a5a5
                6345=> soc_to_fpga_mailbox_write_data_captured : send soc_to_fpga_mailbox_write_event
                6345=> test005_aa_mailbox_soc_cfg : got soc_to_fpga_mailbox_write_event
                6345=> test005_aa_mailbox_soc_cfg [PASS] soc_to_fpga_mailbox_write_addr_expect_value=0002000, soc_to_fpga_mailbox_write_addr_captured[27:0]=0002000
                6345=> test005_aa_mailbox_soc_cfg [PASS] soc_to_fpga_mailbox_write_addr_BE_expect_value=f, soc_to_fpga_mailbox_write_addr_captured[31:28]=f
                6345=> test005_aa_mailbox_soc_cfg [PASS] soc_to_fpga_mailbox_write_data_expect_value=a5a5a5a5, soc_to_fpga_mailbox_write_data_captured=a5a5a5a5
-----------------
                6385=> fpga_axis_req send data, fpga_as_is_tupsb = 00000, fpga_as_is_tstrb = 0000, fpga_as_is_tkeep = 0000, fpga_as_is_tlast = 0, fpga_as_is_tdata = 00000000
                6425=> fpga_axis_req send data, fpga_as_is_tupsb = 00001, fpga_as_is_tstrb = 0000, fpga_as_is_tkeep = 0000, fpga_as_is_tlast = 0, fpga_as_is_tdata = 00000001
                6465=> fpga_axis_req send data, fpga_as_is_tupsb = 00010, fpga_as_is_tstrb = 0000, fpga_as_is_tkeep = 0000, fpga_as_is_tlast = 0, fpga_as_is_tdata = 00000002
                6505=> fpga_axis_req send data, fpga_as_is_tupsb = 00011, fpga_as_is_tstrb = 0000, fpga_as_is_tkeep = 0000, fpga_as_is_tlast = 0, fpga_as_is_tdata = 00000003
                6545=> fpga_axis_req send data, fpga_as_is_tupsb = 00100, fpga_as_is_tstrb = 0000, fpga_as_is_tkeep = 0000, fpga_as_is_tlast = 0, fpga_as_is_tdata = 00000004
                6585=> fpga_axis_req send data, fpga_as_is_tupsb = 00101, fpga_as_is_tstrb = 0000, fpga_as_is_tkeep = 0000, fpga_as_is_tlast = 0, fpga_as_is_tdata = 00000005
                6625=> fpga_axis_req send data, fpga_as_is_tupsb = 00110, fpga_as_is_tstrb = 0000, fpga_as_is_tkeep = 0000, fpga_as_is_tlast = 0, fpga_as_is_tdata = 00000006
                6665=> fpga_axis_req send data, fpga_as_is_tupsb = 00111, fpga_as_is_tstrb = 0000, fpga_as_is_tkeep = 0000, fpga_as_is_tlast = 0, fpga_as_is_tdata = 00000007
                6705=> fpga_axis_req send data, fpga_as_is_tupsb = 01000, fpga_as_is_tstrb = 0000, fpga_as_is_tkeep = 0000, fpga_as_is_tlast = 0, fpga_as_is_tdata = 00000008
                6745=> fpga_axis_req send data, fpga_as_is_tupsb = 01001, fpga_as_is_tstrb = 0000, fpga_as_is_tkeep = 0000, fpga_as_is_tlast = 0, fpga_as_is_tdata = 00000009
                6785=> fpga_axis_req send data, fpga_as_is_tupsb = 01010, fpga_as_is_tstrb = 0000, fpga_as_is_tkeep = 0000, fpga_as_is_tlast = 0, fpga_as_is_tdata = 0000000a
                6825=> fpga_axis_req send data, fpga_as_is_tupsb = 01011, fpga_as_is_tstrb = 0000, fpga_as_is_tkeep = 0000, fpga_as_is_tlast = 0, fpga_as_is_tdata = 0000000b
                6865=> fpga_axis_req send data, fpga_as_is_tupsb = 01100, fpga_as_is_tstrb = 0000, fpga_as_is_tkeep = 0000, fpga_as_is_tlast = 0, fpga_as_is_tdata = 0000000c
                6905=> fpga_axis_req send data, fpga_as_is_tupsb = 01101, fpga_as_is_tstrb = 0000, fpga_as_is_tkeep = 0000, fpga_as_is_tlast = 0, fpga_as_is_tdata = 0000000d
                6945=> fpga_axis_req send data, fpga_as_is_tupsb = 01110, fpga_as_is_tstrb = 0000, fpga_as_is_tkeep = 0000, fpga_as_is_tlast = 0, fpga_as_is_tdata = 0000000e
                6985=> fpga_axis_req send data, fpga_as_is_tupsb = 01111, fpga_as_is_tstrb = 0000, fpga_as_is_tkeep = 0000, fpga_as_is_tlast = 0, fpga_as_is_tdata = 0000000f
                7025=> fpga_axis_req send data, fpga_as_is_tupsb = 10000, fpga_as_is_tstrb = 0000, fpga_as_is_tkeep = 0000, fpga_as_is_tlast = 0, fpga_as_is_tdata = 00000010
                7305=> get soc_to_fpga_axis be : soc_to_fpga_axis_captured_count=         0,  soc_to_fpga_axis_captured[         0] =xxxxxxxxxxxx, fpga_is_as_tupsb=xx, fpga_is_as_tstrb=x, fpga_is_as_tkeep=x , fpga_is_as_tlast=0, fpga_is_as_tdata=00000000
                7305=> get soc_to_fpga_axis af : soc_to_fpga_axis_captured_count=         0,  soc_to_fpga_axis_captured[         0] =xxxX00000000, fpga_is_as_tupsb=xx, fpga_is_as_tstrb=x, fpga_is_as_tkeep=x , fpga_is_as_tlast=0, fpga_is_as_tdata=00000000
                7865=> get soc_to_fpga_axis be : soc_to_fpga_axis_captured_count=         1,  soc_to_fpga_axis_captured[         1] =xxxxxxxxxxxx, fpga_is_as_tupsb=xx, fpga_is_as_tstrb=x, fpga_is_as_tkeep=x , fpga_is_as_tlast=0, fpga_is_as_tdata=00000000
                7865=> get soc_to_fpga_axis af : soc_to_fpga_axis_captured_count=         1,  soc_to_fpga_axis_captured[         1] =xxxX00000000, fpga_is_as_tupsb=xx, fpga_is_as_tstrb=x, fpga_is_as_tkeep=x , fpga_is_as_tlast=0, fpga_is_as_tdata=00000000
                8425=> get soc_to_fpga_axis be : soc_to_fpga_axis_captured_count=         2,  soc_to_fpga_axis_captured[         2] =xxxxxxxxxxxx, fpga_is_as_tupsb=xx, fpga_is_as_tstrb=x, fpga_is_as_tkeep=x , fpga_is_as_tlast=0, fpga_is_as_tdata=fffffff6
                8425=> get soc_to_fpga_axis af : soc_to_fpga_axis_captured_count=         2,  soc_to_fpga_axis_captured[         2] =xxxXfffffff6, fpga_is_as_tupsb=xx, fpga_is_as_tstrb=x, fpga_is_as_tkeep=x , fpga_is_as_tlast=0, fpga_is_as_tdata=fffffff6
                8985=> get soc_to_fpga_axis be : soc_to_fpga_axis_captured_count=         3,  soc_to_fpga_axis_captured[         3] =xxxxxxxxxxxx, fpga_is_as_tupsb=xx, fpga_is_as_tstrb=x, fpga_is_as_tkeep=x , fpga_is_as_tlast=0, fpga_is_as_tdata=ffffffe3
                8985=> get soc_to_fpga_axis af : soc_to_fpga_axis_captured_count=         3,  soc_to_fpga_axis_captured[         3] =xxxXffffffe3, fpga_is_as_tupsb=xx, fpga_is_as_tstrb=x, fpga_is_as_tkeep=x , fpga_is_as_tlast=0, fpga_is_as_tdata=ffffffe3
                9545=> get soc_to_fpga_axis be : soc_to_fpga_axis_captured_count=         4,  soc_to_fpga_axis_captured[         4] =xxxxxxxxxxxx, fpga_is_as_tupsb=xx, fpga_is_as_tstrb=x, fpga_is_as_tkeep=x , fpga_is_as_tlast=0, fpga_is_as_tdata=ffffffe7
                9545=> get soc_to_fpga_axis af : soc_to_fpga_axis_captured_count=         4,  soc_to_fpga_axis_captured[         4] =xxxXffffffe7, fpga_is_as_tupsb=xx, fpga_is_as_tstrb=x, fpga_is_as_tkeep=x , fpga_is_as_tlast=0, fpga_is_as_tdata=ffffffe7
               10105=> get soc_to_fpga_axis be : soc_to_fpga_axis_captured_count=         5,  soc_to_fpga_axis_captured[         5] =xxxxxxxxxxxx, fpga_is_as_tupsb=xx, fpga_is_as_tstrb=x, fpga_is_as_tkeep=x , fpga_is_as_tlast=0, fpga_is_as_tdata=00000023
               10105=> get soc_to_fpga_axis af : soc_to_fpga_axis_captured_count=         5,  soc_to_fpga_axis_captured[         5] =xxxX00000023, fpga_is_as_tupsb=xx, fpga_is_as_tstrb=x, fpga_is_as_tkeep=x , fpga_is_as_tlast=0, fpga_is_as_tdata=00000023
               10665=> get soc_to_fpga_axis be : soc_to_fpga_axis_captured_count=         6,  soc_to_fpga_axis_captured[         6] =xxxxxxxxxxxx, fpga_is_as_tupsb=xx, fpga_is_as_tstrb=x, fpga_is_as_tkeep=x , fpga_is_as_tlast=0, fpga_is_as_tdata=0000009e
               10665=> get soc_to_fpga_axis af : soc_to_fpga_axis_captured_count=         6,  soc_to_fpga_axis_captured[         6] =xxxX0000009e, fpga_is_as_tupsb=xx, fpga_is_as_tstrb=x, fpga_is_as_tkeep=x , fpga_is_as_tlast=0, fpga_is_as_tdata=0000009e
               11225=> get soc_to_fpga_axis be : soc_to_fpga_axis_captured_count=         7,  soc_to_fpga_axis_captured[         7] =xxxxxxxxxxxx, fpga_is_as_tupsb=xx, fpga_is_as_tstrb=x, fpga_is_as_tkeep=x , fpga_is_as_tlast=0, fpga_is_as_tdata=00000151
               11225=> get soc_to_fpga_axis af : soc_to_fpga_axis_captured_count=         7,  soc_to_fpga_axis_captured[         7] =xxxX00000151, fpga_is_as_tupsb=xx, fpga_is_as_tstrb=x, fpga_is_as_tkeep=x , fpga_is_as_tlast=0, fpga_is_as_tdata=00000151
               11785=> get soc_to_fpga_axis be : soc_to_fpga_axis_captured_count=         8,  soc_to_fpga_axis_captured[         8] =xxxxxxxxxxxx, fpga_is_as_tupsb=xx, fpga_is_as_tstrb=x, fpga_is_as_tkeep=x , fpga_is_as_tlast=0, fpga_is_as_tdata=0000021b
               11785=> get soc_to_fpga_axis af : soc_to_fpga_axis_captured_count=         8,  soc_to_fpga_axis_captured[         8] =xxxX0000021b, fpga_is_as_tupsb=xx, fpga_is_as_tstrb=x, fpga_is_as_tkeep=x , fpga_is_as_tlast=0, fpga_is_as_tdata=0000021b
               11905=> fpga_axis_req send data, fpga_as_is_tupsb = 10001, fpga_as_is_tstrb = 0000, fpga_as_is_tkeep = 0000, fpga_as_is_tlast = 0, fpga_as_is_tdata = 00000011
               11945=> fpga_axis_req send data, fpga_as_is_tupsb = 10010, fpga_as_is_tstrb = 0000, fpga_as_is_tkeep = 0000, fpga_as_is_tlast = 0, fpga_as_is_tdata = 00000012
               11985=> fpga_axis_req send data, fpga_as_is_tupsb = 10011, fpga_as_is_tstrb = 0000, fpga_as_is_tkeep = 0000, fpga_as_is_tlast = 0, fpga_as_is_tdata = 00000013
               12025=> fpga_axis_req send data, fpga_as_is_tupsb = 10100, fpga_as_is_tstrb = 0000, fpga_as_is_tkeep = 0000, fpga_as_is_tlast = 0, fpga_as_is_tdata = 00000014
               12065=> fpga_axis_req send data, fpga_as_is_tupsb = 10101, fpga_as_is_tstrb = 0000, fpga_as_is_tkeep = 0000, fpga_as_is_tlast = 0, fpga_as_is_tdata = 00000015
               12105=> fpga_axis_req send data, fpga_as_is_tupsb = 10110, fpga_as_is_tstrb = 0000, fpga_as_is_tkeep = 0000, fpga_as_is_tlast = 0, fpga_as_is_tdata = 00000016
               12145=> fpga_axis_req send data, fpga_as_is_tupsb = 10111, fpga_as_is_tstrb = 0000, fpga_as_is_tkeep = 0000, fpga_as_is_tlast = 0, fpga_as_is_tdata = 00000017
               12185=> fpga_axis_req send data, fpga_as_is_tupsb = 11000, fpga_as_is_tstrb = 0000, fpga_as_is_tkeep = 0000, fpga_as_is_tlast = 0, fpga_as_is_tdata = 00000018
               12225=> fpga_axis_req send data, fpga_as_is_tupsb = 11001, fpga_as_is_tstrb = 0000, fpga_as_is_tkeep = 0000, fpga_as_is_tlast = 0, fpga_as_is_tdata = 00000019
               12345=> get soc_to_fpga_axis be : soc_to_fpga_axis_captured_count=         9,  soc_to_fpga_axis_captured[         9] =xxxxxxxxxxxx, fpga_is_as_tupsb=xx, fpga_is_as_tstrb=x, fpga_is_as_tkeep=x , fpga_is_as_tlast=0, fpga_is_as_tdata=000002dc
               12345=> get soc_to_fpga_axis af : soc_to_fpga_axis_captured_count=         9,  soc_to_fpga_axis_captured[         9] =xxxX000002dc, fpga_is_as_tupsb=xx, fpga_is_as_tstrb=x, fpga_is_as_tkeep=x , fpga_is_as_tlast=0, fpga_is_as_tdata=000002dc
               12905=> get soc_to_fpga_axis be : soc_to_fpga_axis_captured_count=        10,  soc_to_fpga_axis_captured[        10] =xxxxxxxxxxxx, fpga_is_as_tupsb=xx, fpga_is_as_tstrb=x, fpga_is_as_tkeep=x , fpga_is_as_tlast=0, fpga_is_as_tdata=00000393
               12905=> get soc_to_fpga_axis af : soc_to_fpga_axis_captured_count=        10,  soc_to_fpga_axis_captured[        10] =xxxX00000393, fpga_is_as_tupsb=xx, fpga_is_as_tstrb=x, fpga_is_as_tkeep=x , fpga_is_as_tlast=0, fpga_is_as_tdata=00000393
               13465=> get soc_to_fpga_axis be : soc_to_fpga_axis_captured_count=        11,  soc_to_fpga_axis_captured[        11] =xxxxxxxxxxxx, fpga_is_as_tupsb=xx, fpga_is_as_tstrb=x, fpga_is_as_tkeep=x , fpga_is_as_tlast=0, fpga_is_as_tdata=0000044a
               13465=> get soc_to_fpga_axis af : soc_to_fpga_axis_captured_count=        11,  soc_to_fpga_axis_captured[        11] =xxxX0000044a, fpga_is_as_tupsb=xx, fpga_is_as_tstrb=x, fpga_is_as_tkeep=x , fpga_is_as_tlast=0, fpga_is_as_tdata=0000044a
               14025=> get soc_to_fpga_axis be : soc_to_fpga_axis_captured_count=        12,  soc_to_fpga_axis_captured[        12] =xxxxxxxxxxxx, fpga_is_as_tupsb=xx, fpga_is_as_tstrb=x, fpga_is_as_tkeep=x , fpga_is_as_tlast=0, fpga_is_as_tdata=00000501
               14025=> get soc_to_fpga_axis af : soc_to_fpga_axis_captured_count=        12,  soc_to_fpga_axis_captured[        12] =xxxX00000501, fpga_is_as_tupsb=xx, fpga_is_as_tstrb=x, fpga_is_as_tkeep=x , fpga_is_as_tlast=0, fpga_is_as_tdata=00000501
               14585=> get soc_to_fpga_axis be : soc_to_fpga_axis_captured_count=        13,  soc_to_fpga_axis_captured[        13] =xxxxxxxxxxxx, fpga_is_as_tupsb=xx, fpga_is_as_tstrb=x, fpga_is_as_tkeep=x , fpga_is_as_tlast=0, fpga_is_as_tdata=000005b8
               14585=> get soc_to_fpga_axis af : soc_to_fpga_axis_captured_count=        13,  soc_to_fpga_axis_captured[        13] =xxxX000005b8, fpga_is_as_tupsb=xx, fpga_is_as_tstrb=x, fpga_is_as_tkeep=x , fpga_is_as_tlast=0, fpga_is_as_tdata=000005b8
               15145=> get soc_to_fpga_axis be : soc_to_fpga_axis_captured_count=        14,  soc_to_fpga_axis_captured[        14] =xxxxxxxxxxxx, fpga_is_as_tupsb=xx, fpga_is_as_tstrb=x, fpga_is_as_tkeep=x , fpga_is_as_tlast=0, fpga_is_as_tdata=0000066f
               15145=> get soc_to_fpga_axis af : soc_to_fpga_axis_captured_count=        14,  soc_to_fpga_axis_captured[        14] =xxxX0000066f, fpga_is_as_tupsb=xx, fpga_is_as_tstrb=x, fpga_is_as_tkeep=x , fpga_is_as_tlast=0, fpga_is_as_tdata=0000066f
               15705=> get soc_to_fpga_axis be : soc_to_fpga_axis_captured_count=        15,  soc_to_fpga_axis_captured[        15] =xxxxxxxxxxxx, fpga_is_as_tupsb=xx, fpga_is_as_tstrb=x, fpga_is_as_tkeep=x , fpga_is_as_tlast=0, fpga_is_as_tdata=00000726
               15705=> get soc_to_fpga_axis af : soc_to_fpga_axis_captured_count=        15,  soc_to_fpga_axis_captured[        15] =xxxX00000726, fpga_is_as_tupsb=xx, fpga_is_as_tstrb=x, fpga_is_as_tkeep=x , fpga_is_as_tlast=0, fpga_is_as_tdata=00000726
               16265=> get soc_to_fpga_axis be : soc_to_fpga_axis_captured_count=        16,  soc_to_fpga_axis_captured[        16] =xxxxxxxxxxxx, fpga_is_as_tupsb=xx, fpga_is_as_tstrb=x, fpga_is_as_tkeep=x , fpga_is_as_tlast=0, fpga_is_as_tdata=000007dd
               16265=> get soc_to_fpga_axis af : soc_to_fpga_axis_captured_count=        16,  soc_to_fpga_axis_captured[        16] =xxxX000007dd, fpga_is_as_tupsb=xx, fpga_is_as_tstrb=x, fpga_is_as_tkeep=x , fpga_is_as_tlast=0, fpga_is_as_tdata=000007dd
               16825=> get soc_to_fpga_axis be : soc_to_fpga_axis_captured_count=        17,  soc_to_fpga_axis_captured[        17] =xxxxxxxxxxxx, fpga_is_as_tupsb=xx, fpga_is_as_tstrb=x, fpga_is_as_tkeep=x , fpga_is_as_tlast=0, fpga_is_as_tdata=00000894
               16825=> get soc_to_fpga_axis af : soc_to_fpga_axis_captured_count=        17,  soc_to_fpga_axis_captured[        17] =xxxX00000894, fpga_is_as_tupsb=xx, fpga_is_as_tstrb=x, fpga_is_as_tkeep=x , fpga_is_as_tlast=0, fpga_is_as_tdata=00000894
               16945=> fpga_axis_req send data, fpga_as_is_tupsb = 11010, fpga_as_is_tstrb = 0000, fpga_as_is_tkeep = 0000, fpga_as_is_tlast = 0, fpga_as_is_tdata = 0000001a
               16985=> fpga_axis_req send data, fpga_as_is_tupsb = 11011, fpga_as_is_tstrb = 0000, fpga_as_is_tkeep = 0000, fpga_as_is_tlast = 0, fpga_as_is_tdata = 0000001b
               17025=> fpga_axis_req send data, fpga_as_is_tupsb = 11100, fpga_as_is_tstrb = 0000, fpga_as_is_tkeep = 0000, fpga_as_is_tlast = 0, fpga_as_is_tdata = 0000001c
               17065=> fpga_axis_req send data, fpga_as_is_tupsb = 11101, fpga_as_is_tstrb = 0000, fpga_as_is_tkeep = 0000, fpga_as_is_tlast = 0, fpga_as_is_tdata = 0000001d
               17105=> fpga_axis_req send data, fpga_as_is_tupsb = 11110, fpga_as_is_tstrb = 0000, fpga_as_is_tkeep = 0000, fpga_as_is_tlast = 0, fpga_as_is_tdata = 0000001e
               17145=> fpga_axis_req send data, fpga_as_is_tupsb = 11111, fpga_as_is_tstrb = 0000, fpga_as_is_tkeep = 0000, fpga_as_is_tlast = 0, fpga_as_is_tdata = 0000001f
               17185=> fpga_axis_req send data, fpga_as_is_tupsb = 00000, fpga_as_is_tstrb = 0000, fpga_as_is_tkeep = 0000, fpga_as_is_tlast = 0, fpga_as_is_tdata = 00000020
               17225=> fpga_axis_req send data, fpga_as_is_tupsb = 00001, fpga_as_is_tstrb = 0000, fpga_as_is_tkeep = 0000, fpga_as_is_tlast = 0, fpga_as_is_tdata = 00000021
               17265=> fpga_axis_req send data, fpga_as_is_tupsb = 00010, fpga_as_is_tstrb = 0000, fpga_as_is_tkeep = 0000, fpga_as_is_tlast = 0, fpga_as_is_tdata = 00000022
               17385=> get soc_to_fpga_axis be : soc_to_fpga_axis_captured_count=        18,  soc_to_fpga_axis_captured[        18] =xxxxxxxxxxxx, fpga_is_as_tupsb=xx, fpga_is_as_tstrb=x, fpga_is_as_tkeep=x , fpga_is_as_tlast=0, fpga_is_as_tdata=0000094b
               17385=> get soc_to_fpga_axis af : soc_to_fpga_axis_captured_count=        18,  soc_to_fpga_axis_captured[        18] =xxxX0000094b, fpga_is_as_tupsb=xx, fpga_is_as_tstrb=x, fpga_is_as_tkeep=x , fpga_is_as_tlast=0, fpga_is_as_tdata=0000094b
               17945=> get soc_to_fpga_axis be : soc_to_fpga_axis_captured_count=        19,  soc_to_fpga_axis_captured[        19] =xxxxxxxxxxxx, fpga_is_as_tupsb=xx, fpga_is_as_tstrb=x, fpga_is_as_tkeep=x , fpga_is_as_tlast=0, fpga_is_as_tdata=00000a02
               17945=> get soc_to_fpga_axis af : soc_to_fpga_axis_captured_count=        19,  soc_to_fpga_axis_captured[        19] =xxxX00000a02, fpga_is_as_tupsb=xx, fpga_is_as_tstrb=x, fpga_is_as_tkeep=x , fpga_is_as_tlast=0, fpga_is_as_tdata=00000a02
               18505=> get soc_to_fpga_axis be : soc_to_fpga_axis_captured_count=        20,  soc_to_fpga_axis_captured[        20] =xxxxxxxxxxxx, fpga_is_as_tupsb=xx, fpga_is_as_tstrb=x, fpga_is_as_tkeep=x , fpga_is_as_tlast=0, fpga_is_as_tdata=00000ab9
               18505=> get soc_to_fpga_axis af : soc_to_fpga_axis_captured_count=        20,  soc_to_fpga_axis_captured[        20] =xxxX00000ab9, fpga_is_as_tupsb=xx, fpga_is_as_tstrb=x, fpga_is_as_tkeep=x , fpga_is_as_tlast=0, fpga_is_as_tdata=00000ab9
               19065=> get soc_to_fpga_axis be : soc_to_fpga_axis_captured_count=        21,  soc_to_fpga_axis_captured[        21] =xxxxxxxxxxxx, fpga_is_as_tupsb=xx, fpga_is_as_tstrb=x, fpga_is_as_tkeep=x , fpga_is_as_tlast=0, fpga_is_as_tdata=00000b70
               19065=> get soc_to_fpga_axis af : soc_to_fpga_axis_captured_count=        21,  soc_to_fpga_axis_captured[        21] =xxxX00000b70, fpga_is_as_tupsb=xx, fpga_is_as_tstrb=x, fpga_is_as_tkeep=x , fpga_is_as_tlast=0, fpga_is_as_tdata=00000b70
               19625=> get soc_to_fpga_axis be : soc_to_fpga_axis_captured_count=        22,  soc_to_fpga_axis_captured[        22] =xxxxxxxxxxxx, fpga_is_as_tupsb=xx, fpga_is_as_tstrb=x, fpga_is_as_tkeep=x , fpga_is_as_tlast=0, fpga_is_as_tdata=00000c27
               19625=> get soc_to_fpga_axis af : soc_to_fpga_axis_captured_count=        22,  soc_to_fpga_axis_captured[        22] =xxxX00000c27, fpga_is_as_tupsb=xx, fpga_is_as_tstrb=x, fpga_is_as_tkeep=x , fpga_is_as_tlast=0, fpga_is_as_tdata=00000c27
               20185=> get soc_to_fpga_axis be : soc_to_fpga_axis_captured_count=        23,  soc_to_fpga_axis_captured[        23] =xxxxxxxxxxxx, fpga_is_as_tupsb=xx, fpga_is_as_tstrb=x, fpga_is_as_tkeep=x , fpga_is_as_tlast=0, fpga_is_as_tdata=00000cde
               20185=> get soc_to_fpga_axis af : soc_to_fpga_axis_captured_count=        23,  soc_to_fpga_axis_captured[        23] =xxxX00000cde, fpga_is_as_tupsb=xx, fpga_is_as_tstrb=x, fpga_is_as_tkeep=x , fpga_is_as_tlast=0, fpga_is_as_tdata=00000cde
               20745=> get soc_to_fpga_axis be : soc_to_fpga_axis_captured_count=        24,  soc_to_fpga_axis_captured[        24] =xxxxxxxxxxxx, fpga_is_as_tupsb=xx, fpga_is_as_tstrb=x, fpga_is_as_tkeep=x , fpga_is_as_tlast=0, fpga_is_as_tdata=00000d95
               20745=> get soc_to_fpga_axis af : soc_to_fpga_axis_captured_count=        24,  soc_to_fpga_axis_captured[        24] =xxxX00000d95, fpga_is_as_tupsb=xx, fpga_is_as_tstrb=x, fpga_is_as_tkeep=x , fpga_is_as_tlast=0, fpga_is_as_tdata=00000d95
               21305=> get soc_to_fpga_axis be : soc_to_fpga_axis_captured_count=        25,  soc_to_fpga_axis_captured[        25] =xxxxxxxxxxxx, fpga_is_as_tupsb=xx, fpga_is_as_tstrb=x, fpga_is_as_tkeep=x , fpga_is_as_tlast=0, fpga_is_as_tdata=00000e4c
               21305=> get soc_to_fpga_axis af : soc_to_fpga_axis_captured_count=        25,  soc_to_fpga_axis_captured[        25] =xxxX00000e4c, fpga_is_as_tupsb=xx, fpga_is_as_tstrb=x, fpga_is_as_tkeep=x , fpga_is_as_tlast=0, fpga_is_as_tdata=00000e4c
               21865=> get soc_to_fpga_axis be : soc_to_fpga_axis_captured_count=        26,  soc_to_fpga_axis_captured[        26] =xxxxxxxxxxxx, fpga_is_as_tupsb=xx, fpga_is_as_tstrb=x, fpga_is_as_tkeep=x , fpga_is_as_tlast=0, fpga_is_as_tdata=00000f03
               21865=> get soc_to_fpga_axis af : soc_to_fpga_axis_captured_count=        26,  soc_to_fpga_axis_captured[        26] =xxxX00000f03, fpga_is_as_tupsb=xx, fpga_is_as_tstrb=x, fpga_is_as_tkeep=x , fpga_is_as_tlast=0, fpga_is_as_tdata=00000f03
               21985=> fpga_axis_req send data, fpga_as_is_tupsb = 00011, fpga_as_is_tstrb = 0000, fpga_as_is_tkeep = 0000, fpga_as_is_tlast = 0, fpga_as_is_tdata = 00000023
               22025=> fpga_axis_req send data, fpga_as_is_tupsb = 00100, fpga_as_is_tstrb = 0000, fpga_as_is_tkeep = 0000, fpga_as_is_tlast = 0, fpga_as_is_tdata = 00000024
